{
    "parent": "block/cube",
    "textures": {
        "particle": "suludom:block/tool_table_top",
        "down": "minecraft:block/smooth_stone",
        "up": "suludom:block/tool_table_top",
        "north": "minecraft:block/smooth_stone",
        "east": "minecraft:block/smooth_stone",
        "south": "minecraft:block/smooth_stone",
        "west": "minecraft:block/smooth_stone"
    }
}