{
  "type": "minecraft:crafting_shaped",
  "pattern": [
    "MIM",
    "GDG",
    "QQQ"
  ],
  "key": {
    "M": {
      "item": "minecraft:magma_cream"
    },
    "I": {
      "item": "minecraft:ender_eye"
    },
    "G": {
      "item": "minecraft:glowstone"
    },
    "D": {
      "item": "minecraft:diamond_block"
    },
    "Q": {
      "item": "minecraft:quartz_block"
    }
  },
  "result": {
    "item": "suludom:orthogonal_pylon"
  }
}
