{
  "durabilityFactor": 50,
  "armor": 20,
  "armorToughness": 2,
  "enchantability": 10,
  "armorColor": 3402699,
  "materialCategory": "gem",
  "enchantmentAffinities": {
    "minecraft:projectile_protection": 30
  }
}

