{
  "miningLevel": 0,
  "durability": 33,
  "miningSpeed": 12.0,
  "damage": 4.0,
  "attackSpeedBonus": 0.0,
  "enchantability": 25,
  "toolHeadColor": 15396439,
  "materialCategory": "metal",
  "enchantmentAffinities": {
    "minecraft:smite": 30,
    "minecraft:silk_touch": 4
  }
}

